{
  "archive": ["7z", "7zip", "zip", "tar", "gz", "tz", "rar"],
  "image": ["png", "apng", "jpg", "jpeg", "gif", "webp"],
  "video": ["mp4", "webm", "flv", "mkv"],
  "audio": ["mp3", "ogg"],
  "code": ["html", "htm", "css", "scss", "js", "sh", "php", "py"],
  "pdf": ["pdf"]
}
